%YAML 1.1
%TAG !u! tag:unity3d.com,2011:
--- !u!114 &11400000
MonoBehaviour:
  m_ObjectHideFlags: 0
  m_CorrespondingSourceObject: {fileID: 0}
  m_PrefabInstance: {fileID: 0}
  m_PrefabAsset: {fileID: 0}
  m_GameObject: {fileID: 0}
  m_Enabled: 1
  m_EditorHideFlags: 0
  m_Script: {fileID: 11500000, guid: 9582ebe11d9f7e943be8c387818cd600, type: 3}
  m_Name: Pull Object Data
  m_EditorClassIdentifier: 
  SmilePrefab: {fileID: 7511513650890979286, guid: 315e1e02ea626824fa9477e92945cb57,
    type: 3}
  MessageRight: {fileID: 6732908236841486150, guid: 7bf5344e9269c83408c397828053b376,
    type: 3}
  MessageLeft: {fileID: 727844621951842082, guid: 97426d55b75f59e42842652f55354b54,
    type: 3}
